<define-tag pagetitle>DLA-3027-1 neutron</define-tag>
<define-tag report_date>2022-05-26</define-tag>
<define-tag secrefs>CVE-2021-40085</define-tag>
<define-tag packages>neutron</define-tag>
<define-tag isvulnerable>yes</define-tag>
<define-tag fixed>yes</define-tag>
<define-tag fixed-section>no</define-tag>

#use wml::debian::security
