<define-tag pagetitle>DLA-3056-1 exo</define-tag>
<define-tag report_date>2022-06-22</define-tag>
<define-tag secrefs>CVE-2022-32278</define-tag>
<define-tag packages>exo</define-tag>
<define-tag isvulnerable>yes</define-tag>
<define-tag fixed>yes</define-tag>
<define-tag fixed-section>no</define-tag>

#use wml::debian::security
