<define-tag pagetitle>DLA-3070-1 gnutls28</define-tag>
<define-tag report_date>2022-08-11</define-tag>
<define-tag secrefs>CVE-2021-4209 CVE-2022-2509</define-tag>
<define-tag packages>gnutls28</define-tag>
<define-tag isvulnerable>yes</define-tag>
<define-tag fixed>yes</define-tag>
<define-tag fixed-section>no</define-tag>

#use wml::debian::security

