<define-tag pagetitle>DLA-2996-1 mruby</define-tag>
<define-tag report_date>2022-05-18</define-tag>
<define-tag secrefs>CVE-2017-9527 CVE-2018-10191 CVE-2018-11743 CVE-2018-12249 CVE-2018-14337 CVE-2020-15866</define-tag>
<define-tag packages>mruby</define-tag>
<define-tag isvulnerable>yes</define-tag>
<define-tag fixed>yes</define-tag>
<define-tag fixed-section>no</define-tag>

#use wml::debian::security

