<define-tag pagetitle>DLA-2903-1 libraw</define-tag>
<define-tag report_date>2022-02-22</define-tag>
<define-tag secrefs>CVE-2017-14608 CVE-2017-16909 CVE-2017-16910 CVE-2018-5800 CVE-2018-5801 CVE-2018-5802 CVE-2018-5804 CVE-2018-5805 CVE-2018-5806 CVE-2018-5807 CVE-2018-5808 CVE-2018-5810 CVE-2018-5811 CVE-2018-5812 CVE-2018-5813 CVE-2018-5815 CVE-2018-5817 CVE-2018-5818 CVE-2018-5819 CVE-2018-20363 CVE-2018-20364 CVE-2018-20365</define-tag>
<define-tag packages>libraw</define-tag>
<define-tag isvulnerable>yes</define-tag>
<define-tag fixed>yes</define-tag>
<define-tag fixed-section>no</define-tag>

#use wml::debian::security

