<define-tag pagetitle>DLA-2856-1 okular</define-tag>
<define-tag report_date>2021-12-27</define-tag>
<define-tag secrefs>CVE-2020-9359 Bug#954891</define-tag>
<define-tag packages>okular</define-tag>
<define-tag isvulnerable>yes</define-tag>
<define-tag fixed>yes</define-tag>
<define-tag fixed-section>no</define-tag>

#use wml::debian::security

