<define-tag pagetitle>DLA-2778-1 fig2dev</define-tag>
<define-tag report_date>2021-10-04</define-tag>
<define-tag secrefs>CVE-2019-19797 CVE-2020-21529 CVE-2020-21530 CVE-2020-21531 CVE-2020-21532 CVE-2020-21533 CVE-2020-21534 CVE-2020-21535 CVE-2020-21675 CVE-2020-21676 CVE-2021-3561 CVE-2021-32280</define-tag>
<define-tag packages>fig2dev</define-tag>
<define-tag isvulnerable>yes</define-tag>
<define-tag fixed>yes</define-tag>
<define-tag fixed-section>no</define-tag>

#use wml::debian::security

