<define-tag pagetitle>DLA-2686-1 python-urllib3</define-tag>
<define-tag report_date>2021-06-28</define-tag>
<define-tag secrefs>CVE-2018-20060 CVE-2019-11236 CVE-2019-11324 CVE-2020-26137</define-tag>
<define-tag packages>python-urllib3</define-tag>
<define-tag isvulnerable>yes</define-tag>
<define-tag fixed>yes</define-tag>
<define-tag fixed-section>no</define-tag>

#use wml::debian::security

