<define-tag pagetitle>DLA-2675-1 caribou</define-tag>
<define-tag report_date>2021-06-03</define-tag>
<define-tag secrefs>Bug#980061</define-tag>
<define-tag packages>caribou</define-tag>
<define-tag isvulnerable>yes</define-tag>
<define-tag fixed>yes</define-tag>
<define-tag fixed-section>no</define-tag>

#use wml::debian::security

