<define-tag pagetitle>DLA-2859-1 zziplib</define-tag>
<define-tag report_date>2021-12-28</define-tag>
<define-tag secrefs>CVE-2020-18442</define-tag>
<define-tag packages>zziplib</define-tag>
<define-tag isvulnerable>yes</define-tag>
<define-tag fixed>yes</define-tag>
<define-tag fixed-section>no</define-tag>

#use wml::debian::security

