<define-tag pagetitle>DLA-2836-2 nss</define-tag>
<define-tag report_date>2021-12-08</define-tag>
<define-tag secrefs>Bug#1001219</define-tag>
<define-tag packages>nss</define-tag>
<define-tag isvulnerable>yes</define-tag>
<define-tag fixed>yes</define-tag>
<define-tag fixed-section>no</define-tag>

#use wml::debian::security

