<define-tag pagetitle>DLA-2590-1 pygments</define-tag>
<define-tag report_date>2021-03-12</define-tag>
<define-tag secrefs>CVE-2021-20270 Bug#984664</define-tag>
<define-tag packages>pygments</define-tag>
<define-tag isvulnerable>yes</define-tag>
<define-tag fixed>yes</define-tag>
<define-tag fixed-section>no</define-tag>

#use wml::debian::security

