<define-tag pagetitle>DSA-5319-1 openvswitch</define-tag>
<define-tag report_date>2023-1-13</define-tag>
<define-tag secrefs>CVE-2022-4337 CVE-2022-4338 Bug#1027273</define-tag>
<define-tag packages>openvswitch</define-tag>
<define-tag isvulnerable>yes</define-tag>
<define-tag fixed>yes</define-tag>
<define-tag fixed-section>no</define-tag>

#use wml::debian::security



</dl>
