<define-tag pagetitle>DLA-0001-1 gnutls26</define-tag>
<define-tag report_date>2014-6-2</define-tag>
<define-tag secrefs>CVE-2014-3466</define-tag>
<define-tag packages>gnutls26</define-tag>
<define-tag isvulnerable>yes</define-tag>
<define-tag fixed>yes</define-tag>
<define-tag fixed-section>no</define-tag>

#use wml::debian::security

