    1	Aaron M. Ucko 	ucko 
    2	Abhijith PA 	abhijith 
    3	Abraham Raji 	abraham 
    4	Adam Borowski 	kilobyte 
    5	Adam D. Barratt 	adsb 
    6	Adam Majer 	adamm 
    7	Adam Powell 	hazelsct 
    8	Adrian Bunk 	bunk 
    9	Adriano Rafael Gomes 	adrianorg 
   10	Afif Elghraoui 	afif 
   11	Agustin Henze 	tin 
   12	Agustín Martín Domingo 	agmartin 
   13	Aigars Mahinovs 	aigarius 
   14	Akira Ohashi 	bg66 
   15	Akira Yamada 	akira 
   16	Alan Woodland 	awoodland 
   17	Alastair McKinstry 	mckinstry 
   18	Alban Vidal 	zordhak 
   19	Albert Huang 	ash 
   20	Alberto Garcia 	berto 
   21	Alberto Gonzalez Iniesta 	agi 
   22	Albin Tonnerre 	lutin 
   23	Alejandro Garrido Mota 	alejandro 
   24	Alen Zekulic 	azekulic 
   25	Alessandro Ghedini 	ghedo 
   26	Alessio Treglia 	alessio 
   27	Alex Muntada 	alexm 
   28	Alex Pennace 	alexp 
   29	Alexander Chernyakhovsky 	achernya 
   30	Alexander GQ Gerasiov 	gq 
   31	Alexander List 	alex 
   32	Alexander Reichle-Schmehl 	tolimar 
   33	Alexander Sack 	asac 
   34	Alexander Wirt 	formorer 
   35	Alexander Zangerl 	az 
   36	Alexandre Delanoë 	anoe 
   37	Alexandre Mestiashvili 	mestia 
   38	Alexandre Viau 	aviau 
   39	Alexei Nikolov 	clown 
   40	Allison Randal 	wendar 
   41	Aloïs Micard 	creekorful 
   42	Amaya Rodrigo Sastre 	amaya 
   43	Amos Waterland 	apw 
   44	Ana Beatriz Guerrero López 	ana 
   45	Ana Carolina Comandulli 	caroll 
   46	Ana Custura 	acute 
   47	Anders Hammarquist 	iko 
   48	Andre Luis Lopes 	andrelop 
   49	Andrea Capriotti 	capriott 
   50	Andrea Colangelo 	warp10 
   51	Andrea Mennucci 	mennucc1 
   52	Andreas B. Mundt 	andi 
   53	Andreas Barth 	aba 
   54	Andreas Beckmann 	anbe 
   55	Andreas Boll 	aboll 
   56	Andreas E. Bombe 	aeb 
   57	Andreas Franzen 	anfra 
   58	Andreas Henriksson 	ah 
   59	Andreas Metzler 	ametzler 
   60	Andreas Rönnquist 	gusnan 
   61	Andreas Tille 	tille 
   62	Andree Leidenfrost 	andree 
   63	Andrej Shadura 	andrewsh 
   64	Andres Salomon 	dilinger 
   65	Andrew Lee 	ajqlee 
   66	Andrew Martin Adrian Cater 	amacater 
   67	Andrew McMillan 	awm 
   68	Andrew Mitchell 	ajmitch 
   69	Andrew Pollock 	apollock 
   70	Andrew Starr-Bochicchio 	asb 
   71	Andrey Rahmatullin 	wrar 
   72	Andrius Merkys 	merkys 
   73	Andy Li 	andyli 
   74	Andy Simpkins 	rattusrattus 
   75	Angel Abad 	angel 
   76	Angus Lees 	gus 
   77	Anibal Monsalve Salazar 	anibal 
   78	Anselm Lingnau 	lingnau 
   79	Ansgar 	ansgar 
   80	Anthony Fok 	foka 
   81	Anthony Towns 	ajt 
   82	Antoine Beaupré 	anarcat 
   83	Anton Gladky 	gladk 
   84	Anton Zinoviev 	zinoviev 
   85	Antonin Kral 	krala 
   86	Antonio Radici 	antonio 
   87	Antonio Terceiro 	terceiro 
   88	Anuradha Weeraman 	anuradha 
   89	Apollon Oikonomopoulos 	apoikos 
   90	Ardo van Rangelrooij 	ardo 
   91	Ari Pollak 	ari 
   92	Arnaud Ferraris 	aferraris 
   93	Arnaud Fontaine 	arnau 
   94	Arnaud Rebillout 	arnaudr 
   95	Arno Töll 	arno 
   96	Aron Xu 	aron 
   97	Arthur de Jong 	adejong 
   98	Arto Jantunen 	viiru 
   99	Arturo Borrero González 	arturo 
  100	Asheesh Laroia 	paulproteus 
  101	Asias He 	asias 
  102	Atsushi Kamoshida 	kamop 
  103	Attila Szalay 	sasa 
  104	Aurelien Jarno 	aurel32 
  105	Aurélien Couderc 	coucouf 
  106	Axel Beckert 	abe 
  107	Balasankar Chelamattathu 	balasankarc 
  108	Balint Reczey 	rbalint 
  109	Baptiste Beauplat 	lyknode 
  110	Barak A. Pearlmutter 	bap 
  111	Barry deFreese 	bdefreese 
  112	Bart Martens 	bartm 
  113	Bartosz Fenski 	fenio 
  114	Bas Wijnen 	wijnen 
  115	Bas Zoetekouw 	bas 
  116	Bastian Blank 	waldi 
  117	Bastian Germann 	bage 
  118	Bastian Venthur 	venthur 
  119	Bastien Roucariès 	rouca 
  120	Bdale Garbee 	bdale 
  121	Ben Armstrong 	synrg 
  122	Ben Burton 	bab 
  123	Ben Finney 	bignose 
  124	Ben Hutchings 	benh 
  125	Benda Xu 	orv 
  126	Benjamin Barenblat 	bbaren 
  127	Benjamin Drung 	bdrung 
  128	Benjamin Hill 	mako 
  129	Benjamin Mesing 	ben 
  130	Bernd Schumacher 	bs 
  131	Bernd Zeimetz 	bzed 
  132	Bernhard R. Link 	brlink 
  133	Bernhard Schmidt 	berni 
  134	Bertrand Marc 	bmarc 
  135	Bill Allombert 	ballombe 
  136	Birger Schacht 	birger 
  137	Boris Pek 	tehnick 
  138	Boyuan Yang 	byang 
  139	Bradley Bosch 	brad 
  140	Branden Robinson 	branden 
  141	Brendan O'Dea 	bod 
  142	Breno Leitao 	leitao 
  143	Brian Gupta 	bgupta 
  144	Brian May 	bam 
  145	Brian Pellin 	bpellin 
  146	Brian Ristuccia 	brianr 
  147	Brian Thomason 	iamfuzz 
  148	Brian White 	bcwhite 
  149	Brice Goglin 	bgoglin 
  150	Bruno Kleinert 	fuddl 
  151	Cameron Dale 	camrdale 
  152	Camm Maguire 	camm 
  153	Carl Chenet 	chaica 
  154	Carl Worth 	cworth 
  155	Carlo U. Segre 	segre 
  156	Carlos Laviola 	claviola 
  157	Carsten Hey 	carsten 
  158	Carsten Leonhardt 	leo 
  159	Carsten Schoenert 	tijuca 
  160	ChangZhuo Chen 	czchen 
  161	Changwoo Ryu 	cwryu 
  162	Charles Plessy 	plessy 
  163	Chen Baozi 	baozich 
  164	Chris Boot 	bootc 
  165	Chris Boyle 	cmb 
  166	Chris Halls 	halls 
  167	Chris Hofstaedtler 	zeha 
  168	Chris Lamb 	lamby 
  169	Christian Bayle 	bayle 
  170	Christian Ehrhardt 	paelzer 
  171	Christian Kastner 	ckk 
  172	Christian Marillat 	marillat 
  173	Christian T. Steigies 	cts 
  174	Christine Christine Spang 	christine 
  175	Christoph Berg 	myon 
  176	Christoph Biedl 	cbiedl 
  177	Christoph Egger 	christoph 
  178	Christoph Göhre 	gris 
  179	Christoph Haas 	haas 
  180	Christoph Martin 	chrism 
  181	Christopher Knadle 	krait 
  182	Christopher L. Cheney 	ccheney 
  183	Christopher Lawrence 	lawrencc 
  184	Christopher Stuart Hoskin 	mans0954 
  185	Christopher Taylor 	ctaylor 
  186	Christos Trochalakis 	ctrochalakis 
  187	Chrysostomos Nanakos 	cnanakos 
  188	Chuan-kai Lin 	cklin 
  189	Clint Adams 	clint 
  190	Clint Byrum 	spamaps 
  191	Clément Hermann 	nodens 
  192	Colin Watson 	cjwatson 
  193	Cord Beermann 	cord 
  194	Craig Small 	csmall 
  195	Cyril Bouthors 	cyb 
  196	Cyril Brulebois 	kibi 
  197	Cédric Boutillier 	boutil 
  198	Daisuke Higuchi 	dai 
  199	Dale Martin 	dmartin 
  200	Damyan Ivanov 	dmn 
  201	Danai Sae-Han 	danai 
  202	Daniel Baumann 	daniel 
  203	Daniel Echeverry 	epsilon 
  204	Daniel Glassey 	wdg 
  205	Daniel Kahn Gillmor 	dkg 
  206	Daniel Lange 	dlange 
  207	Daniel Leidert 	dleidert 
  208	Daniel Lenharo de Souza 	lenharo 
  209	Daniel Schepler 	schepler 
  210	Daniel Silverstone 	dsilvers 
  211	Daniel Swarbrick 	dswarbrick 
  212	Daniele Tricoli 	eriol 
  213	Dann Frazier 	dannf 
  214	Dario Minnucci 	midget 
  215	Dariusz Dwornikowski 	darek 
  216	Dave Holland 	dave 
  217	David Bremner 	bremner 
  218	David I. Lehn 	dlehn 
  219	David Kalnischkies 	donkult 
  220	David L. Coe 	davidc 
  221	David Nusinow 	dnusinow 
  222	David Paleino 	dapal 
  223	David Prévot 	taffit 
  224	David Steele 	steele 
  225	David Suárez Rodríguez 	deiv 
  226	David Watson 	dwatson 
  227	David Weinehall 	tao 
  228	Davide G.M. Salvetti 	salve 
  229	Davide Puricelli 	evo 
  230	Deepak Tripathi 	deepak 
  231	Denis Barbier 	barbier 
  232	Denis Briand 	denis 
  233	Dennis L. Clark 	dbugger 
  234	Diane Trout 	diane 
  235	Didier Raboud 	odyx 
  236	Dima Kogan 	dkogan 
  237	Dimitri Ledkov 	xnox 
  238	Dirk Eddelbuettel 	edd 
  239	Dmitry Borodaenko 	angdraug 
  240	Dmitry Oboukhov 	unera 
  241	Dmitry Shachnev 	mitya57 
  242	Dmitry Smirnov 	onlyjob 
  243	Domenico Andreoli 	cavok 
  244	Dominic Hargreaves 	dom 
  245	Dominik George 	natureshadow 
  246	Dominique Belhachemi 	domibel 
  247	Dominique Dumont 	dod 
  248	Don Armstrong 	don 
  249	Donald Norwood 	donald 
  250	Douglas Andrew Torrance 	dtorrance 
  251	Drake Diedrich 	dld 
  252	Drew Parsons 	dparsons 
  253	Dylan Aïssi 	daissi 
  254	Ean Schuessler 	ean 
  255	Ed Boraas 	ed 
  256	Eduard Bloch 	blade 
  257	Eduardo Trápani 	mapache 
  258	Edward Betts 	edward 
  259	Eike Sauer 	eike 
  260	Elana Hashman 	ehashman 
  261	Elena Grandi 	valhalla 
  262	Eloy A. Paris 	peloy 
  263	Emanuele Rocca 	ema 
  264	Emfox Zhou 	emfox 
  265	Emilio Pozuelo Monfort 	pochu 
  266	Emmanuel Bourg 	ebourg 
  267	Emmanuel Bouthenot 	kolter 
  268	Emmanuel Kasper Kasprzyk 	manu 
  269	Enrico Zini 	enrico 
  270	Eric Delaunay 	delaunay 
  271	Eric Dorland 	eric 
  272	Eric Evans 	eevans 
  273	Eric Sharkey 	sharkey 
  274	Erich Schubert 	erich 
  275	Erik Schanze 	eriks 
  276	Erik Wenzel 	erik 
  277	Erinn Clark 	erinn 
  278	Eugene V. Lyubimkin 	jackyf 
  279	Eugeniy Meshcheryakov 	eugen 
  280	Evgeni Golov 	evgeni 
  281	Fabian Fagerholm 	fabbe 
  282	Fabian Greffrath 	fabian 
  283	Fabio Augusto De Muzio Tobich 	ftobich 
  284	Fabio Tranchitella 	kobold 
  285	Faidon Liambotis 	paravoid 
  286	Fathi Boudra 	fabo 
  287	Federico Ceratto 	federico 
  288	Federico Di Gregorio 	fog 
  289	Felipe Augusto van de Wiel 	faw 
  290	Felipe Sateler 	fsateler 
  291	Felix Geyer 	fgeyer 
  292	Felix Lechner 	lechner 
  293	Ferenc Wágner 	wferi 
  294	Filippo Giunchedi 	filippo 
  295	Filippo Rusconi 	lopippo 
  296	Florian Ernst 	florian 
  297	Florian Hinzmann 	fh 
  298	Florian Lohoff 	flo 
  299	Florian Schlichting 	fsfs 
  300	Florian Weimer 	fw 
  301	Francesca Ciceri 	madamezou 
  302	Francesco Lovergine 	frankie 
  303	Francesco Namuri 	franam 
  304	Francisco Manuel García Claramonte 	francisco 
  305	Francisco Vilmar Cardoso Ruviaro 	vilmar 
  306	Francois Marier 	francois 
  307	Frank Lichtenheld 	djpig 
  308	Frederic Peters 	fpeters 
  309	Fredrik Hallenberg 	hallon 
  310	Free Ekanayaka 	freee 
  311	Frédéric Bonnard 	frediz 
  312	Frédéric-Emmanuel Picca 	picca 
  313	Félix Sipma 	felix 
  314	Gabriel F. T. Gomes 	gabriel 
  315	Gard Spreemann 	gspr 
  316	Gaudenz Steinlin 	gaudenz 
  317	Geert Stappers 	stappers 
  318	Gennaro Oliva 	oliva 
  319	Geoffroy Youri Berret 	kaliko 
  320	Georg Faerber 	georg 
  321	George Danchev 	danchev 
  322	Georges Khaznadar 	georgesk 
  323	Gerrit Pape 	pape 
  324	Gert Wollny 	gewo 
  325	Giacomo Catenazzi 	cate 
  326	Gianfranco Costamagna 	locutusofborg 
  327	Gilles Filippini 	pini 
  328	Giovani Augusto Ferreira 	giovani 
  329	Giovanni Mascellani 	gio 
  330	Giuseppe Sacco 	eppesuig 
  331	Gleydson Mazioli da Silva 	gleydson 
  332	Goedson Teixeira Paixao 	goedson 
  333	Gonéri Le Bouder 	goneri 
  334	Gordon Ball 	chronitis 
  335	Graham Inggs 	ginggs 
  336	Gregor Herrmann 	gregoa 
  337	Gregory Colpart 	reg 
  338	Guido Guenther 	agx 
  339	Guido Trotter 	ultrotter 
  340	Guilhem Moulin 	guilhem 
  341	Guillem Jover 	guillem 
  342	Gunnar Hjalmarsson 	gunnarhj 
  343	Gunnar Wolf 	gwolf 
  344	Gustavo Franco 	stratus 
  345	Gustavo Noronha 	kov 
  346	Gustavo Panizzo 	gfa 
  347	Guus Sliepen 	guus 
  348	Göran Weinholt 	weinholt 
  349	Gürkan Myczko 	tar 
  350	HAYASHI Kentaro 	kenhys 
  351	Hakan Ardo 	hakan 
  352	Hannes von Haugwitz 	hvhaugwitz 
  353	Hanno Wagner 	wagner 
  354	Hans-Christoph Steiner 	eighthave 
  355	Harlan Lieberman-Berg 	hlieberman 
  356	Harshula Jayasuriya 	harshula 
  357	Hector Garcia 	hector 
  358	Hector Oron 	zumbi 
  359	Heiko Stübner 	mmind 
  360	Helen Faulkner 	helen 
  361	Helge Deller 	deller 
  362	Helmut Grohne 	helmutg 
  363	Henning Glawe 	glaweh 
  364	Henrique de Moraes Holschuh 	hmh 
  365	Henry-Nicolas Tourneur 	hntourne 
  366	Hideki Yamane 	henrich 
  367	Hilko Bengen 	bengen 
  368	Holger Levsen 	holger 
  369	Holger Wansing 	holgerw 
  370	Hubert Chan 	uhoreg 
  371	Hugo Lefeuvre 	hle 
  372	Hwei Sheng Teoh 	hsteoh 
  373	IOhannes m zmölnig 	umlaeute 
  374	Iain Lane 	laney 
  375	Ian Jackson 	iwj 
  376	Ian James Campbell 	ijc 
  377	Ian Wienand 	ianw 
  378	Ilias Tsitsimpis 	iliastsi 
  379	Iustin Pop 	iustin 
  380	Ivan Kohler 	ivan 
  381	Ivo De Decker 	ivodd 
  382	Jaakko Niemi 	liiwi 
  383	Jaime Robles 	jaime 
  384	Jakob Haufe 	sur5r 
  385	Jakub Wilk 	jwilk 
  386	Jaldhar H. Vyas 	jaldhar 
  387	James Bromberger 	jeb 
  388	James Cowgill 	jcowgill 
  389	James Downing Page 	jamespage 
  390	James McCoy 	jamessan 
  391	James Troup 	troup 
  392	James Valleroy 	jvalleroy 
  393	Jamie Wilkinson 	jaq 
  394	Jan Dittberner 	jandd 
  395	Jan Hauke Rahm 	jhr 
  396	Jan Lübbe 	jluebbe 
  397	Jan Niehusmann 	jan 
  398	Jan Wagner 	waja 
  399	Javier Fernandez-Sanguino Peña 	jfs 
  400	Javier Merino Cacho 	vicho 
  401	Jay Berkenbilt 	qjb 
  402	Jay Bonci 	jaybonci 
  403	Jean Baptiste Favre 	jbfavre 
  404	Jean-Michel Kelbert 	kelbert 
  405	Jean-Michel Vourgère 	nirgal 
  406	Jean-Philippe MENGUAL 	jpmengual 
  407	Jeff Breidenbach 	jab 
  408	Jeffrey Ratcliffe 	jjr 
  409	Jelmer Vernooij 	jelmer 
  410	Jeremy Bicha 	jbicha 
  411	Jeremy Bouse 	jbouse 
  412	Jeremy Lainé 	sharky 
  413	Jeroen Ploemen 	jcfp 
  414	Jeroen van Wolffelaar 	jeroen 
  415	Jerome Charaoui 	lavamind 
  416	Jerome Georges Benoit 	calculus 
  417	Jessica Clarke 	jrtc27 
  418	Jim Meyering 	meyering 
  419	Jimmy Kaplowitz 	jimmy 
  420	Jo Shields 	directhex 
  421	Joachim Reichel 	reichel 
  422	Joao Eriberto Mota Filho 	eriberto 
  423	Jochen Sprickerhof 	jspricke 
  424	Joel Rosdahl 	joel 
  425	Joerg Jaspert 	joerg 
  426	Johann Felix Soden 	johfel 
  427	Johannes Schauer 	josch 
  428	John Francesco Ferlito 	johnf 
  429	John Goerzen 	jgoerzen 
  430	John H. IV Robinson 	jaqque 
  431	John Leuner 	jewel 
  432	John Lightsey 	lightsey 
  433	John Lines 	jlines 
  434	John Paul Adrian Glaubitz 	glaubitz 
  435	John Sullivan 	johns 
  436	John V. Belmonte 	jbelmonte 
  437	John Wright 	jsw 
  438	Jon Bernard 	jbernard 
  439	Jonas Genannt 	genannt 
  440	Jonas Meurer 	mejo 
  441	Jonas Smedegaard 	js 
  442	Jonathan Bustillos 	jathan 
  443	Jonathan Cristopher Carter 	jcc 
  444	Jonathan Dowland 	jmtd 
  445	Jonathan Marler 	jmarler 
  446	Jonathan McDowell 	noodles 
  447	Jonathan Nieder 	jrnieder 
  448	Jonathan Oxer 	jon 
  449	Jonathan Wiltshire 	jmw 
  450	Jonny Lamb 	jonny 
  451	Joost van Baal 	joostvb 
  452	Jordan Justen 	jljusten 
  453	Jordi Mallach 	jordi 
  454	Jorge Salamero Sanz 	bencer 
  455	Jose Luis Rivas Contreras 	ghostbar 
  456	Jose M. Calhariz 	calhariz 
  457	Jose Parrella 	bureado 
  458	Joseph Nahmias 	jello 
  459	Joshua Kwan 	joshk 
  460	Josip Rodin 	joy 
  461	Josselin Mouette 	joss 
  462	Josué Abarca 	jmaslibre 
  463	Josué Ortega 	josue 
  464	José L. Redrejo Rodríguez 	jredrejo 
  465	Juan Cespedes 	cespedes 
  466	Juan Gregorio Hernando Rivero 	ghe 
  467	Judit Foglszinger 	urbec 
  468	Julian Andres Klode 	jak 
  469	Julian Gilbey 	jdg 
  470	Juliane Friederike Holzt 	jule 
  471	Julien Cristau 	jcristau 
  472	Julien Patriarca 	leatherface 
  473	Julien Puydt 	jpuydt 
  474	Julián Moreno Patiño 	julian 
  475	Junichi Uekawa 	dancer 
  476	Jérémy Bobbio 	lunar 
  477	Jérémy Lal 	kapouer 
  478	Jörgen Hägg 	jh 
  479	Kai Wasserbäch 	curan 
  480	Kamal Mostafa 	kamal 
  481	Kanru Chen 	koster 
  482	Karen M Sandler 	karen 
  483	Kari Pahula 	kaol 
  484	Karsten Merker 	merker 
  485	Kartik Mistry 	kartik 
  486	Kees Cook 	kees 
  487	Keita Maehara 	maehara 
  488	Keith Packard 	keithp 
  489	Keng-Yu Lin 	kengyu 
  490	Kenneth J. Pronovici 	pronovic 
  491	Kevin Coyner 	kcoyner 
  492	Kevin M. Rosenberg 	kmr 
  493	Khalid Aziz 	khalid 
  494	Kilian Krause 	kilian 
  495	Klee Dienes 	klee 
  496	Konstantinos Margaritis 	markos 
  497	Krzysztof Krzyzaniak 	eloy 
  498	Kumar Appaiah 	akumar 
  499	Kunal Mehta 	legoktm 
  500	Kurt Kremitzki 	kkremitzki 
  501	Kurt Roeckx 	kroeckx 
  502	Kyle Robbertze 	paddatrapper 
  503	Kåre Thor Olsen 	kaare 
  504	Lamont Jones 	lamont 
  505	Lars Bahner 	bahner 
  506	Laszlo Kajan 	lkajan 
  507	Laura Arjona Reina 	larjona 
  508	Laurent Bigonville 	bigon 
  509	Lenart Janos 	ocsi 
  510	Leo Costela 	costela 
  511	Lev Lamberov 	dogsleg 
  512	Lionel Elie Mamane 	lmamane 
  513	Lior Kaplan 	kaplan 
  514	Lisa Baron 	jeffity 
  515	Lisandro Damián Nicanor Pérez Meyer 	lisandro 
  516	Loic Dachary 	loic 
  517	Loong Jin Chow 	hyperair 
  518	Louis-Philippe Véronneau 	pollo 
  519	Loïc Minier 	lool 
  520	Luca Boccassi 	bluca 
  521	Luca Bruno 	lucab 
  522	Luca Falavigna 	dktrkranz 
  523	Luca Filipozzi 	lfilipoz 
  524	Lucas Kanashiro 	kanashiro 
  525	Lucas Nussbaum 	lucas 
  526	Luciano Bello 	luciano 
  527	Ludovic Brenta 	lbrenta 
  528	Ludovic Drolez 	ldrolez 
  529	Ludovic Rousseau 	rousseau 
  530	Ludovico Cavedon 	cavedon 
  531	Ludovico Gardenghi 	garden 
  532	Luigi Gangitano 	luigi 
  533	Lukasz Jachowicz 	honey 
  534	Luke Faraone 	lfaraone 
  535	László Böszörményi 	gcs 
  536	M J Ray 	mjr 
  537	Maarten Bernardus Lankhorst 	maarten 
  538	Magnus Holmgren 	holmgren 
  539	Maitland Bottoms 	bottoms 
  540	Makoto OHURA 	ohura 
  541	Manoj Srivastava 	srivasta 
  542	Manuel A. Fernandez Montecelo 	mafm 
  543	Manuel Prinz 	manuel 
  544	Marc Dequènes 	duck 
  545	Marc Haber 	zugschlus 
  546	Marc Singer 	elf 
  547	Marcela Tiznado 	mlt 
  548	Marcelo Jorge Vieira 	metal 
  549	Marcin Kulisz 	kula 
  550	Marcin Owsiany 	porridge 
  551	Marcio de Souza Oliveira 	marciosouza 
  552	Marco Nenciarini 	mnencia 
  553	Marco d'Itri 	md 
  554	Marcos Fouces 	marcos 
  555	Marcos Talau 	talau 
  556	Margarita Manterola 	marga 
  557	Mario Joussen 	joussen 
  558	Mark Brown 	broonie 
  559	Mark Eichin 	eichin 
  560	Mark Hindley 	leepen 
  561	Mark Hymers 	mhy 
  562	Mark Lee Garrett 	lee 
  563	Mark Purcell 	msp 
  564	Markus Frosch 	lazyfrosch 
  565	Markus Koschany 	apo 
  566	Markus Wanner 	markus 
  567	Martijn van Brummelen 	mvb 
  568	Martin 	debacle 
  569	Martin A. Godisch 	godisch 
  570	Martin Albert 	ma 
  571	Martin Bagge 	brother 
  572	Martin Buck 	mbuck 
  573	Martin F. Krafft 	madduck 
  574	Martin Loschwitz 	madkiss 
  575	Martin Meredith 	mez 
  576	Martin Michlmayr 	tbm 
  577	Martin Pitt 	mpitt 
  578	Martin Quinson 	mquinson 
  579	Martin Wuertele 	maxx 
  580	Martin Zobel-Helas 	zobel 
  581	Martina Ferrari 	tina 
  582	Masahito Omote 	omote 
  583	Masanori Goto 	gotom 
  584	Masayuki Hatta 	mhatta 
  585	Mathias Behrle 	mbehrle 
  586	Mathieu Malaterre 	malat 
  587	Mathieu Parent 	sathieu 
  588	Matt Kraai 	kraai 
  589	Matt Taggart 	taggart 
  590	Matt Zimmerman 	mdz 
  591	Matteo F. Vescovi 	mfv 
  592	Matthew Brown 	mattb 
  593	Matthew Danish 	mrd 
  594	Matthew Garrett 	mjg59 
  595	Matthew Grant 	grantma 
  596	Matthew Palmer 	mpalmer 
  597	Matthew Vernon 	matthew 
  598	Matthias Klose 	doko 
  599	Matthias Klumpp 	mak 
  600	Matthias Urlichs 	smurf 
  601	Matthieu Caneill 	matthieucan 
  602	Mattia Dongili 	malattia 
  603	Mattia Rizzolo 	mattia 
  604	Mattias Ellert 	ellert 
  605	Mattias Nordstrom 	mnordstr 
  606	Mattias Wadenstein 	maswan 
  607	Max Vozeler 	xam 
  608	Maximilian Attems 	maks 
  609	Maximiliano Curia 	maxy 
  610	Mazen Neifer 	mazen 
  611	Mechtilde Stehmann 	mechtilde 
  612	Mehdi Dogguy 	mehdi 
  613	Miah Gregory 	mace 
  614	Micah Anderson 	micah 
  615	Micha Lenk 	micha 
  616	Michael Ablassmeier 	abi 
  617	Michael Banck 	mbanck 
  618	Michael Beattie 	mjb 
  619	Michael Biebl 	biebl 
  620	Michael Bramer 	grisu 
  621	Michael C. Schultheiss 	schultmc 
  622	Michael D. Mattice 	mattice 
  623	Michael Fladischer 	fladi 
  624	Michael Gilbert 	mgilbert 
  625	Michael Hanke 	mih 
  626	Michael Hudson-Doyle 	mwhudson 
  627	Michael Janssen 	jamuraa 
  628	Michael Jeanson 	mjeanson 
  629	Michael Lustfield 	mtecknology 
  630	Michael Meskes 	meskes 
  631	Michael Prokop 	mika 
  632	Michael Robin Crusoe 	crusoe 
  633	Michael Schmitz 	schmitz 
  634	Michael Schutte 	michi 
  635	Michael Stapelberg 	stapelberg 
  636	Michael Stone 	mstone 
  637	Michael Tautschnig 	mt 
  638	Michael Tokarev 	mjt 
  639	Michael Vogt 	mvo 
  640	Michal Arbet 	kevko 
  641	Michal Cihar 	nijel 
  642	Miguel Landaeta 	nomadium 
  643	Mikael Djurfeldt 	mdj 
  644	Mike Gabriel 	sunweaver 
  645	Mike Hommey 	glandium 
  646	Mike Markley 	madhack 
  647	Mike Miller 	mtmiller 
  648	Mikhail Gusarov 	dottedmag 
  649	Milan Kupcevic 	milan 
  650	Milan Zamazal 	pdm 
  651	Ming-ting Yao Wei 	mwei 
  652	Miquel van Smoorenburg 	miquels 
  653	Mirco Bauer 	meebey 
  654	Miriam Ruiz 	miriam 
  655	Mo Zhou 	lumin 
  656	Modestas Vainius 	modax 
  657	Mohammed Adnène Trojette 	adn 
  658	Mohammed Sameer 	msameer 
  659	Molly de Blanc 	mollydb 
  660	Moray Allan 	moray 
  661	Moritz Muehlenhoff 	jmm 
  662	Morten Werner Forsbring 	werner 
  663	Muammar El Khatib 	muammar 
  664	Murat Demirten 	murat 
  665	Mutsumi Ishikawa 	ishikawa 
  666	NIIBE Yutaka 	gniibe 
  667	Nathan Scott 	nathans 
  668	Nathaniel Harrison Handler 	nhandler 
  669	Nattie Mayer-Hutchings 	nattie 
  670	Neil A. Schemenauer 	nas 
  671	Neil L. Roeth 	neil 
  672	Neil McGovern 	neilm 
  673	Neil Williams 	codehelp 
  674	Neutron Soutmun 	neutrons 
  675	Nicholas Breen 	nbreen 
  676	Nicholas D Steeves 	sten 
  677	Nick Morrott 	nickm 
  678	Nick Phillips 	nwp 
  679	Nicolas Boulenguez 	nicolas 
  680	Nicolas Boullis 	nboullis 
  681	Nicolas Dandrimont 	olasd 
  682	Nicolas Mora 	babelouest 
  683	Niels Thykier 	nthykier 
  684	Niko Tyni 	ntyni 
  685	Nilesh Patra 	nilesh 
  686	Nils Boeffel 	lohner 
  687	Noah Meyerhans 	noahm 
  688	Nobuhiro Iwamatsu 	iwamatsu 
  689	Norbert Veber 	nveber 
  690	Noèl Köthe 	noel 
  691	Obey Arthur Liu 	arthurliu 
  692	Ognyan Kulev 	ogi 
  693	Ola Lundqvist 	opal 
  694	Ole Streicher 	olebole 
  695	Olek Wojnar 	olek 
  696	Olivier Sallou 	osallou 
  697	Olly Betts 	olly 
  698	Ondrej Sury 	ondrej 
  699	Ondřej Kobližek 	kobla 
  700	Ondřej Nový 	onovy 
  701	Ondřej Čertík 	certik 
  702	Osamu Aoki 	osamu 
  703	Otto Kekäläinen 	otto 
  704	Ove Kåven 	ovek 
  705	Pablo Lorenzzoni 	spectra 
  706	Paride Legovini 	paride 
  707	Patrick Franz 	deltaone 
  708	Patrick Matthäi 	pmatthaei 
  709	Patrick Ouellette 	pouelle 
  710	Patryk Cisek 	patryk 
  711	Patty Langasek 	harmoney 
  712	Paul Brossier 	piem 
  713	Paul Cannon 	pik 
  714	Paul Gevers 	elbrus 
  715	Paul Martin 	pm 
  716	Paul Richards Tagliamonte 	paultag 
  717	Paul Slootman 	paul 
  718	Paul Waite 	paulwaite 
  719	Paul Wise 	pabs 
  720	Paul van Tilburg 	paulvt 
  721	Paulo Henrique de Lima Santana 	phls 
  722	Per Andersson 	avtobiff 
  723	Peter De Schrijver 	p2 
  724	Peter Eisentraut 	petere 
  725	Peter Kelemen 	fuji 
  726	Peter Michael Green 	plugwash 
  727	Peter Palfrader 	weasel 
  728	Peter Pentchev 	roam 
  729	Peter S. Galbraith 	psg 
  730	Peter Van Eynde 	pvaneynd 
  731	Petr Cech 	cech 
  732	Petter Reinholdtsen 	pere 
  733	Phil Brooke 	pjb 
  734	Phil Morrell 	emorrp1 
  735	Philip Hands 	philh 
  736	Philip Rinn 	rinni 
  737	Philipp Huebner 	debalance 
  738	Philipp Hug 	hug 
  739	Philipp Kern 	pkern 
  740	Philipp Matthias Hahn 	pmhahn 
  741	Philippe Thierry 	philou 
  742	Pierre Chifflier 	pollux 
  743	Pierre Gruet 	pgt 
  744	Pierre-Elliott Bécue 	peb 
  745	Pino Toscano 	pino 
  746	Piotr Ożarowski 	piotr 
  747	Piotr Roszatycki 	dexter 
  748	Prach Pongpanich 	prach 
  749	Praveen Arimbrathodiyil 	praveen 
  750	Punit Agrawal 	punit 
  751	RISKO Gergely 	risko 
  752	Radovan Garabik 	garabik 
  753	Rafael Laboissiere 	rafael 
  754	Ralf Treinen 	treinen 
  755	Raphael Bossek 	bossekr 
  756	Raphael Geissert 	geissert 
  757	Raphaël Hertzog 	hertzog 
  758	Recai Oktas 	roktas 
  759	Reinhard Tartler 	siretart 
  760	Remi Vanicat 	vanicat 
  761	Rene Engelhard 	rene 
  762	Rene Mayorga 	rmayorga 
  763	Rene Mayrhofer 	rmayr 
  764	Rene Weber 	rweber 
  765	Rhonda D'Vine 	rhonda 
  766	Ricardo Mones Lastra 	mones 
  767	Riccardo Setti 	giskard 
  768	Richard A. Nelson 	cowboy 
  769	Richard Hecker 	hecker 
  770	Richard Kreckel 	kreckel 
  771	Richard Laager 	rlaager 
  772	Richard Michael Hartmann 	richih 
  773	Ritesh Raj Sarraf 	rrs 
  774	Rob Browning 	rlb 
  775	Robert Alan Larson 	blarson 
  776	Robert Edmonds 	edmonds 
  777	Robert Haist 	rha 
  778	Robert Luberda 	robert 
  779	Robert Millan 	rmh 
  780	Robert Woodcock 	rcw 
  781	Roberto C. Sanchez 	roberto 
  782	Roberto Lumbreras 	rover 
  783	Robie Basak 	rbasak 
  784	Roger Shimizu 	rosh 
  785	Roland Dreier 	rbd 
  786	Roland Fehrenbacher 	rfehren 
  787	Roland Marcus Rutschmann 	rudi 
  788	Roland Mas 	lolando 
  789	Roland Rosenfeld 	roland 
  790	Romain Francoise 	rfrancoise 
  791	Ron Lee 	ron 
  792	Ross Burton 	ross 
  793	Ross Gammon 	rossgammon 
  794	Ross Peachey 	rcp 
  795	Ross Vandegrift 	rvandegrift 
  796	Ruben Undheim 	rubund 
  797	Russ Allbery 	rra 
  798	Russell Coker 	etbe 
  799	Russell Stuart 	ras 
  800	Ryan Kavanagh 	rak 
  801	Ryan M. Golbeck 	rmgolbeck 
  802	SZ Lin 	szlin 
  803	Sakirnth Nagarasa 	sakirnth 
  804	Salvador Abreu 	spa 
  805	Salvatore Bonaccorso 	carnil 
  806	Sam Clegg 	samo 
  807	Sam Hartman 	hartmans 
  808	Sam Johnston 	samj 
  809	Samuel Henrique 	samueloph 
  810	Samuel Mimram 	smimram 
  811	Samuel Thibault 	sthibault 
  812	Sandro Knauß 	hefee 
  813	Sandro Tosi 	morph 
  814	Santiago Garcia Mantinan 	manty 
  815	Santiago Ruano Rincón 	santiago 
  816	Santiago Vila 	sanvila 
  817	Sascha Steinbiss 	satta 
  818	Scarlett Moore 	sgmoore 
  819	Scott James Remnant 	keybuk 
  820	Scott Kitterman 	kitterman 
  821	Scott Sheridan Howard 	showard 
  822	Scott Talbert 	swt2c 
  823	Sean Whitton 	spwhitton 
  824	Sebastiaan Couwenberg 	sebastic 
  825	Sebastian Andrzej Siewior 	bigeasy 
  826	Sebastian Dröge 	slomo 
  827	Sebastian Harl 	tokkee 
  828	Sebastian Ramacher 	sramacher 
  829	Sebastian Reichel 	sre 
  830	Sebastian Rittau 	srittau 
  831	Sebastien Bacher 	seb128 
  832	Sebastien Badia 	sbadia 
  833	Sebastien Delafond 	seb 
  834	Serafeim Zanikolas 	sez 
  835	Sergei Golovan 	sgolovan 
  836	Sergio Durigan Junior 	sergiodj 
  837	Sergio Talens-Oliag 	sto 
  838	Shachar Shemesh 	shachar 
  839	Shane Wegner 	shane 
  840	Shaun Jackman 	sjackman 
  841	Shengjing Zhu 	zhsj 
  842	Shigeo Noshiro 	noshiro 
  843	Shih-Yuan Lee 	fourdollars 
  844	Siegfried-Angel Gevatter Pujals 	sgevatter 
  845	Simon Horman 	horms 
  846	Simon Josefsson 	jas 
  847	Simon Kelley 	srk 
  848	Simon McVittie 	smcv 
  849	Simon Quigley 	tsimonq2 
  850	Simon Richter 	sjr 
  851	Sjoerd Simons 	sjoerd 
  852	Sophie Brun 	sophieb 
  853	Sruthi Chandran 	srud 
  854	Stefan Alfredsson 	alfs 
  855	Stefan Fritsch 	sf 
  856	Stefan Hornburg 	racke 
  857	Stefano Rivera 	stefanor 
  858	Stefano Zacchiroli 	zack 
  859	Steffen Möller 	moeller 
  860	Stein Magnus Jodal 	jodal 
  861	Steinar H. Gunderson 	sesse 
  862	Stephan Lachnit 	stephanlachnit 
  863	Stephan Suerken 	absurd 
  864	Stephen Frost 	sfrost 
  865	Stephen Gelman 	ssgelm 
  866	Stephen Kitt 	skitt 
  867	Stephen Leake 	stephe 
  868	Steve Kemp 	skx 
  869	Steve Kostecke 	steve 
  870	Steve Kowalik 	stevenk 
  871	Steve Langasek 	vorlon 
  872	Steve McIntyre 	93sam 
  873	Steven Chamberlain 	stevenc 
  874	Steven Michael Robbins 	smr 
  875	Stig Sandbeck Mathisen 	ssm 
  876	Stuart Prescott 	stuart 
  877	Stéphane Blondon 	sblondon 
  878	Stéphane Glondu 	glondu 
  879	Sudip Mukherjee 	sudip 
  880	Sune Vuorela 	sune 
  881	Sven Bartscher 	kritzefitz 
  882	Sven Eckelmann 	ecsv 
  883	Sven Hoexter 	hoexter 
  884	Sven Mueller 	sven 
  885	Sylvain Beucler 	beuc 
  886	Sylvestre Ledru 	sylvestre 
  887	Sébastien Villemot 	sebastien 
  888	Takaki Taniguchi 	takaki 
  889	Takatsugu Nokubi 	knok 
  890	Takeshi YAEGASHI 	yaegashi 
  891	Taku Yasui 	tach 
  892	Takuo KITAME 	kitame 
  893	Tanguy Ortolo 	tanguy 
  894	Taowa 	taowa 
  895	Tatsuya Kinoshita 	tats 
  896	Teemu Hukkanen 	tjhukkan 
  897	Teruyuki Morimura 	morimura 
  898	Teus Benschop 	teusbenschop 
  899	Thaddeus H. Black 	thb 
  900	Thadeu Cascardo 	cascardo 
  901	Theodore Y. Ts'o 	tytso 
  902	Theppitak Karoonboonyanan 	thep 
  903	Thiago Andrade Marques 	andrade 
  904	Thibaut Jean-Claude Paumard 	thibaut 
  905	Thierry Randrianiriana 	thierry 
  906	Thijs Kinkhorst 	thijs 
  907	Thom May 	thom 
  908	Thomas Girard 	tgg 
  909	Thomas Goirand 	zigo 
  910	Thomas Lange 	lange 
  911	Thomas Preud'homme 	robotux 
  912	Thomas Schmidt 	tschmidt 
  913	Thomas Vincent 	tvincent 
  914	Thomas Wana 	greuff 
  915	Thomas Weber 	tweber 
  916	Thorsten Alteholz 	alteholz 
  917	Thorsten Glaser 	tg 
  918	Tiago Bortoletto Vaz 	tiago 
  919	Tianon Gravi 	tianon 
  920	Tim Cutts 	tjrc1 
  921	Tim Retout 	diocles 
  922	Tim Riker 	timr 
  923	Timo Aaltonen 	tjaalton 
  924	Timo Juhani Lindfors 	lindi 
  925	Timo Jyrinki 	timo 
  926	Timo Röhling 	roehling 
  927	Timo Weingärtner 	tiwe 
  928	Timothy Martin Potter 	tpot 
  929	Tobias Frost 	tobi 
  930	Tobias Grimm 	etobi 
  931	Tobias Hansen 	thansen 
  932	Tobias Quathamer 	toddy 
  933	Tollef Fog Heen 	tfheen 
  934	Tomas Fasth 	tomfa 
  935	Tomas Pospisek 	tpo 
  936	Tomasz Buchert 	tomasz 
  937	Tomasz Rybak 	serpent 
  938	Tommi Vainikainen 	tvainika 
  939	Toni Mueller 	toni 
  940	Tony Mancill 	tmancill 
  941	Torsten Landschoff 	torsten 
  942	Torsten Marek 	shlomme 
  943	Tristan Seligmann 	mithrandi 
  944	Troy Heber 	troyh 
  945	Tzafrir Cohen 	tzafrir 
  946	Tássia Camões Araújo 	tassia 
  947	Ulises Vitulli 	dererk 
  948	Ulrich Dangel 	uli 
  949	Unit 193 	unit193 
  950	Utkarsh Gupta 	utkarsh 
  951	Uwe Hermann 	uwe 
  952	Uwe Kleine-König 	ukleinek 
  953	Uwe Steinmann 	steinm 
  954	Vagrant Cascadian 	vagrant 
  955	Valentin Vidic 	vvidic 
  956	Varun Hiremath 	varun 
  957	Vasudev Sathish Kamath 	vasudev 
  958	Victor Seva 	vseva 
  959	Vincent Bernat 	bernat 
  960	Vincent Cheng 	vcheng 
  961	Vincent Danjean 	vdanjean 
  962	Vincent Legout 	vlegout 
  963	Vincent Prat 	vivi 
  964	Vincent Sanders 	vince 
  965	Wartan Hachaturow 	wart 
  966	Werner Heuser 	wehe 
  967	Wesley W. Terpstra 	terpstra 
  968	Will Newton 	will 
  969	Willi Mann 	willi 
  970	William Blough 	bblough 
  971	Wilmer van der Gaast 	lintux 
  972	Wookey 	wookey 
  973	Wouter Verhelst 	wouter 
  974	Xavier Lüthi 	xluthi 
  975	Xavier Roche 	xavier 
  976	Ximin Luo 	infinity0 
  977	Yadd 	yadd 
  978	Yann Dirson 	dirson 
  979	Yaroslav Halchenko 	yoh 
  980	Yasuhiro Araki 	ar 
  981	Ying-Chun Liu 	paulliu 
  982	Yukiharu Yabuki 	yyabuki 
  983	YunQiang Su 	syq 
  984	Yuuma Oohara 	oohara 
  985	Yves-Alexis Perez 	corsac 
  986	Zed Pobre 	zed 
  987	Zlatan Todoric 	zlatan 
  988	intrigeri 	intrigeri 
  989	nick black 	dank 
  990	nicoo 	nicoo 
  991	Étienne Mollier 	emollier 
