<define-tag pagetitle>DLA-1197-1 sox</define-tag>
<define-tag report_date>2017-11-30</define-tag>
<define-tag secrefs>CVE-2017-11332 CVE-2017-11358 CVE-2017-11359 CVE-2017-15370 CVE-2017-15371 CVE-2017-15372 CVE-2017-15642 Bug#870328 Bug#878810 Bug#878809 Bug#878808 Bug#882236 Bug#882144</define-tag>
<define-tag packages>sox</define-tag>
<define-tag isvulnerable>yes</define-tag>
<define-tag fixed>yes</define-tag>
<define-tag fixed-section>no</define-tag>

#use wml::debian::security

