<define-tag pagetitle>DLA-949-1 miniupnpc</define-tag>
<define-tag report_date>2017-5-22</define-tag>
<define-tag secrefs>CVE-2017-8798 Bug##862273</define-tag>
<define-tag packages>miniupnpc</define-tag>
<define-tag isvulnerable>yes</define-tag>
<define-tag fixed>yes</define-tag>
<define-tag fixed-section>no</define-tag>

#use wml::debian::security

