<define-tag pagetitle>DLA-772-1 linux</define-tag>
<define-tag report_date>2017-1-1</define-tag>
<define-tag secrefs>CVE-2012-6704 CVE-2015-1350 CVE-2015-8962 CVE-2015-8963 CVE-2015-8964 CVE-2016-7097 CVE-2016-7910 CVE-2016-7911 CVE-2016-7915 CVE-2016-8399 CVE-2016-8633 CVE-2016-8645 CVE-2016-8655 CVE-2016-9178 CVE-2016-9555 CVE-2016-9576 CVE-2016-9756 CVE-2016-9793 CVE-2016-9794 CVE-2016-10088 Bug#770492</define-tag>
<define-tag packages>linux</define-tag>
<define-tag isvulnerable>yes</define-tag>
<define-tag fixed>yes</define-tag>
<define-tag fixed-section>no</define-tag>

#use wml::debian::security

