<define-tag pagetitle>DLA-3271-1 node-minimatch</define-tag>
<define-tag report_date>2023-01-15</define-tag>
<define-tag secrefs>CVE-2022-3517</define-tag>
<define-tag packages>node-minimatch</define-tag>
<define-tag isvulnerable>yes</define-tag>
<define-tag fixed>yes</define-tag>
<define-tag fixed-section>no</define-tag>

#use wml::debian::security

