<define-tag pagetitle>DLA-2208-1 wordpress</define-tag>
<define-tag report_date>2020-05-11</define-tag>
<define-tag secrefs>CVE-2020-11026 CVE-2020-11027 CVE-2020-11028 CVE-2020-11029 Bug#959391</define-tag>
<define-tag packages>wordpress</define-tag>
<define-tag isvulnerable>yes</define-tag>
<define-tag fixed>yes</define-tag>
<define-tag fixed-section>no</define-tag>

#use wml::debian::security

