<define-tag pagetitle>DLA-2131-2 rrdtool</define-tag>
<define-tag report_date>2020-03-03</define-tag>
<define-tag secrefs>CVE-2014-6262 Bug#952958</define-tag>
<define-tag packages>rrdtool</define-tag>
<define-tag isvulnerable>yes</define-tag>
<define-tag fixed>yes</define-tag>
<define-tag fixed-section>no</define-tag>

#use wml::debian::security

