<define-tag pagetitle>DLA-1551-1 exiv2</define-tag>
<define-tag report_date>2018-10-21</define-tag>
<define-tag secrefs>CVE-2018-10958 CVE-2018-10999 CVE-2018-16336</define-tag>
<define-tag packages>exiv2</define-tag>
<define-tag isvulnerable>yes</define-tag>
<define-tag fixed>yes</define-tag>
<define-tag fixed-section>no</define-tag>

#use wml::debian::security

