<define-tag pagetitle>DLA-1472-1 libcgroup</define-tag>
<define-tag report_date>2018-8-20</define-tag>
<define-tag secrefs>CVE-2018-14348 Bug#906308</define-tag>
<define-tag packages>libcgroup</define-tag>
<define-tag isvulnerable>yes</define-tag>
<define-tag fixed>yes</define-tag>
<define-tag fixed-section>no</define-tag>

#use wml::debian::security

