<define-tag pagetitle>DLA-1530-1 imagemagick</define-tag>
<define-tag report_date>2018-10-3</define-tag>
<define-tag secrefs>CVE-2018-16412 CVE-2018-16413 CVE-2018-16642 CVE-2018-16643 CVE-2018-16644 CVE-2018-16645 CVE-2018-16749</define-tag>
<define-tag packages>imagemagick</define-tag>
<define-tag isvulnerable>yes</define-tag>
<define-tag fixed>yes</define-tag>
<define-tag fixed-section>no</define-tag>

#use wml::debian::security

