<define-tag pagetitle>DLA-1333-1 dovecot</define-tag>
<define-tag report_date>2018-3-31</define-tag>
<define-tag secrefs>CVE-2017-14461 CVE-2017-15130 CVE-2017-15132</define-tag>
<define-tag packages>dovecot</define-tag>
<define-tag isvulnerable>yes</define-tag>
<define-tag fixed>yes</define-tag>
<define-tag fixed-section>no</define-tag>

#use wml::debian::security

