<define-tag pagetitle>DSA-4395-1 chromium</define-tag>
<define-tag report_date>2019-2-18</define-tag>
<define-tag secrefs>CVE-2018-17481 CVE-2019-5754 CVE-2019-5755 CVE-2019-5756 CVE-2019-5757 CVE-2019-5758 CVE-2019-5759 CVE-2019-5760 CVE-2019-5762 CVE-2019-5763 CVE-2019-5764 CVE-2019-5765 CVE-2019-5766 CVE-2019-5767 CVE-2019-5768 CVE-2019-5769 CVE-2019-5770 CVE-2019-5772 CVE-2019-5773 CVE-2019-5774 CVE-2019-5775 CVE-2019-5776 CVE-2019-5777 CVE-2019-5778 CVE-2019-5779 CVE-2019-5780 CVE-2019-5781 CVE-2019-5782 CVE-2019-5783 CVE-2019-5784</define-tag>
<define-tag packages>chromium</define-tag>
<define-tag isvulnerable>yes</define-tag>
<define-tag fixed>yes</define-tag>
<define-tag fixed-section>no</define-tag>

#use wml::debian::security



</dl>
