<define-tag pagetitle>DSA-4429-1 spip</define-tag>
<define-tag report_date>2019-4-10</define-tag>
<define-tag secrefs>CVE-2019-11071 Bug#926764</define-tag>
<define-tag packages>spip</define-tag>
<define-tag isvulnerable>yes</define-tag>
<define-tag fixed>yes</define-tag>
<define-tag fixed-section>no</define-tag>

#use wml::debian::security



</dl>
