<define-tag pagetitle>DSA-4421-1 chromium</define-tag>
<define-tag report_date>2019-3-31</define-tag>
<define-tag secrefs>CVE-2019-5787 CVE-2019-5788 CVE-2019-5789 CVE-2019-5790 CVE-2019-5791 CVE-2019-5792 CVE-2019-5793 CVE-2019-5794 CVE-2019-5795 CVE-2019-5796 CVE-2019-5797 CVE-2019-5798 CVE-2019-5799 CVE-2019-5800 CVE-2019-5802 CVE-2019-5803</define-tag>
<define-tag packages>chromium</define-tag>
<define-tag isvulnerable>yes</define-tag>
<define-tag fixed>yes</define-tag>
<define-tag fixed-section>no</define-tag>

#use wml::debian::security



</dl>
