<define-tag pagetitle>DSA-5194-1 booth</define-tag>
<define-tag report_date>2022-7-29</define-tag>
<define-tag secrefs>CVE-2022-2553</define-tag>
<define-tag packages>booth</define-tag>
<define-tag isvulnerable>yes</define-tag>
<define-tag fixed>yes</define-tag>
<define-tag fixed-section>no</define-tag>

#use wml::debian::security



</dl>
