<define-tag pagetitle>DSA-5276-1 pixman</define-tag>
<define-tag report_date>2022-11-12</define-tag>
<define-tag secrefs>CVE-2022-44638 Bug#1023427</define-tag>
<define-tag packages>pixman</define-tag>
<define-tag isvulnerable>yes</define-tag>
<define-tag fixed>yes</define-tag>
<define-tag fixed-section>no</define-tag>

#use wml::debian::security



</dl>
