<define-tag pagetitle>DSA-5235-1 bind9</define-tag>
<define-tag report_date>2022-9-22</define-tag>
<define-tag secrefs>CVE-2022-2795 CVE-2022-3080 CVE-2022-38177 CVE-2022-38178</define-tag>
<define-tag packages>bind9</define-tag>
<define-tag isvulnerable>yes</define-tag>
<define-tag fixed>yes</define-tag>
<define-tag fixed-section>no</define-tag>

#use wml::debian::security



</dl>
