<define-tag pagetitle>DSA-5201-1 chromium</define-tag>
<define-tag report_date>2022-8-07</define-tag>
<define-tag secrefs>CVE-2022-2603 CVE-2022-2604 CVE-2022-2605 CVE-2022-2606 CVE-2022-2607 CVE-2022-2608 CVE-2022-2609 CVE-2022-2610 CVE-2022-2611 CVE-2022-2612 CVE-2022-2613 CVE-2022-2614 CVE-2022-2615 CVE-2022-2616 CVE-2022-2617 CVE-2022-2618 CVE-2022-2619 CVE-2022-2620 CVE-2022-2621 CVE-2022-2622 CVE-2022-2623 CVE-2022-2624</define-tag>
<define-tag packages>chromium</define-tag>
<define-tag isvulnerable>yes</define-tag>
<define-tag fixed>yes</define-tag>
<define-tag fixed-section>no</define-tag>

#use wml::debian::security



</dl>
