<define-tag pagetitle>DSA-5120-1 chromium</define-tag>
<define-tag report_date>2022-4-13</define-tag>
<define-tag secrefs>CVE-2022-1305 CVE-2022-1306 CVE-2022-1307 CVE-2022-1308 CVE-2022-1309 CVE-2022-1310 CVE-2022-1311 CVE-2022-1312 CVE-2022-1313 CVE-2022-1314</define-tag>
<define-tag packages>chromium</define-tag>
<define-tag isvulnerable>yes</define-tag>
<define-tag fixed>yes</define-tag>
<define-tag fixed-section>no</define-tag>

#use wml::debian::security



</dl>
