<define-tag pagetitle>DSA-5133-1 qemu</define-tag>
<define-tag report_date>2022-5-09</define-tag>
<define-tag secrefs>CVE-2022-26353 CVE-2022-26354 CVE-2021-4206 CVE-2021-4207 CVE-2022-0358</define-tag>
<define-tag packages>qemu</define-tag>
<define-tag isvulnerable>yes</define-tag>
<define-tag fixed>yes</define-tag>
<define-tag fixed-section>no</define-tag>

#use wml::debian::security



</dl>
