<define-tag pagetitle>DSA-5184-1 xen</define-tag>
<define-tag report_date>2022-7-15</define-tag>
<define-tag secrefs>CVE-2022-21123 CVE-2022-21125 CVE-2022-21166 CVE-2022-23825 CVE-2022-26362 CVE-2022-26363 CVE-2022-26364 CVE-2022-29900</define-tag>
<define-tag packages>xen</define-tag>
<define-tag isvulnerable>yes</define-tag>
<define-tag fixed>yes</define-tag>
<define-tag fixed-section>no</define-tag>

#use wml::debian::security



</dl>
