<define-tag pagetitle>DSA-5236-1 expat</define-tag>
<define-tag report_date>2022-9-22</define-tag>
<define-tag secrefs>CVE-2022-40674 Bug#1019761</define-tag>
<define-tag packages>expat</define-tag>
<define-tag isvulnerable>yes</define-tag>
<define-tag fixed>yes</define-tag>
<define-tag fixed-section>no</define-tag>

#use wml::debian::security



</dl>
