<define-tag pagetitle>DLA-217-1 xdg-utils</define-tag>
<define-tag report_date>2015-5-1</define-tag>
<define-tag secrefs>CVE-2014-9622 CVE-2015-1877</define-tag>
<define-tag packages>xdg-utils</define-tag>
<define-tag isvulnerable>yes</define-tag>
<define-tag fixed>yes</define-tag>
<define-tag fixed-section>no</define-tag>

#use wml::debian::security

