<define-tag pagetitle>DLA-385-2 isc-dhcp</define-tag>
<define-tag report_date>2016-1-19</define-tag>
<define-tag secrefs>CVE-2015-8605 Bug##810875</define-tag>
<define-tag packages>isc-dhcp</define-tag>
<define-tag isvulnerable>yes</define-tag>
<define-tag fixed>yes</define-tag>
<define-tag fixed-section>no</define-tag>

#use wml::debian::security

